{
    "KPlugin": {
        "Description": "Process text using terminal commands",
        "Description[az]": "Mətn üzərində terminal əmrləri ilə işləyin",
        "Description[bg]": "Обработка на текст с помощта на терминални команди",
        "Description[ca@valencia]": "Processa el text utilitzant ordres de terminal",
        "Description[ca]": "Processa el text usant ordres de terminal",
        "Description[cs]": "Zpracujte text pomocí příkazů v terminálu",
        "Description[de]": "Bearbeitung von Text mit Terminal-Befehlen",
        "Description[el]": "Επεξεργασία κειμένου με χρήση εντολών του τερματικού",
        "Description[en_GB]": "Process text using terminal commands",
        "Description[es]": "Procesar texto usando órdenes del terminal",
        "Description[eu]": "Terminaleko komandoak erabiliz testua prozesatzea",
        "Description[fi]": "Käsittele tekstiä päätekomennoin",
        "Description[fr]": "Traiter le texte à l'aide des commandes du terminal",
        "Description[hu]": "Szövegfeldolgozás terminálparancsokkal",
        "Description[ia]": "Tracta texto usante commandos de terminal",
        "Description[it]": "Elabora il testo usando i comandi da terminale",
        "Description[ko]": "터미널 명령으로 텍스트 처리",
        "Description[nl]": "Tekst verwerken met commando's op de terminal",
        "Description[pl]": "Przetwórz text przy użyciu poleceń terminala",
        "Description[pt]": "Processar texto com comandos do terminal",
        "Description[pt_BR]": "Processar texto usando comandos do terminal",
        "Description[ru]": "Обработка текста с помощью команд терминала",
        "Description[sl]": "Obdelaj besedila z uporabo ukazov na terminalu",
        "Description[sv]": "Behandla text med terminalkommandon",
        "Description[tr]": "Metni uçbirim komutları kullanarak işleyin",
        "Description[uk]": "Обробити текст за допомогою команд термінала",
        "Description[vi]": "Xử lí văn bản bằng các lệnh trong trình dòng lệnh",
        "Description[x-test]": "xxProcess text using terminal commandsxx",
        "Description[zh_CN]": "使用终端命令处理文本",
        "Name": "Text Filter",
        "Name[ar]": "مرشّح النّصوص",
        "Name[az]": "Mətn süzgəci",
        "Name[bg]": "Текстов филтър",
        "Name[ca@valencia]": "Filtre de text",
        "Name[ca]": "Filtre de text",
        "Name[cs]": "Textový filtr",
        "Name[de]": "Textfilter",
        "Name[el]": "Φίλτρο κειμένου",
        "Name[en_GB]": "Text Filter",
        "Name[es]": "Filtro de texto",
        "Name[eu]": "Testuen iragazkia",
        "Name[fi]": "Tekstisuodatin",
        "Name[fr]": "Filtre de texte",
        "Name[hu]": "Szövegszűrő",
        "Name[ia]": "Filtro de texto",
        "Name[it]": "Filtro di testo",
        "Name[ka]": "ტექსტის ფილტრი",
        "Name[ko]": "텍스트 필터",
        "Name[nl]": "Tekstfilter",
        "Name[pl]": "Filtr tekstu",
        "Name[pt]": "Filtro de Texto",
        "Name[pt_BR]": "Filtro de texto",
        "Name[ru]": "Фильтр текста",
        "Name[sk]": "Filter textu",
        "Name[sl]": "Filter besedil",
        "Name[sv]": "Textfilter",
        "Name[tr]": "Metin Süzgeci",
        "Name[uk]": "Фільтр тексту",
        "Name[vi]": "Bộ lọc văn bản",
        "Name[x-test]": "xxText Filterxx",
        "Name[zh_CN]": "文本筛选器",
        "ServiceTypes": [
            "KTextEditor/Plugin"
        ]
    }
}
